\relax 
\providecommand\hyper@newdestlabel[2]{}
\providecommand\HyperFirstAtBeginDocument{\AtBeginDocument}
\HyperFirstAtBeginDocument{\ifx\hyper@anchor\@undefined
\global\let\oldcontentsline\contentsline
\gdef\contentsline#1#2#3#4{\oldcontentsline{#1}{#2}{#3}}
\global\let\oldnewlabel\newlabel
\gdef\newlabel#1#2{\newlabelxx{#1}#2}
\gdef\newlabelxx#1#2#3#4#5#6{\oldnewlabel{#1}{{#2}{#3}}}
\AtEndDocument{\ifx\hyper@anchor\@undefined
\let\contentsline\oldcontentsline
\let\newlabel\oldnewlabel
\fi}
\fi}
\global\let\hyper@last\relax 
\gdef\HyperFirstAtBeginDocument#1{#1}
\providecommand*\HyPL@Entry[1]{}
\@input{Title1.aux}
\HyPL@Entry{0<</S/D>>}
\@input{Title2.aux}
\@input{Contents/Abstract.aux}
\HyPL@Entry{4<</S/D /St 4>>}
\citation{Osada:2019oor}
\HyPL@Entry{5<</S/D /St 4>>}
\@writefile{toc}{\contentsline {section}{\numberline {1}序論}{4}{section.1}\protected@file@percent }
\@writefile{lof}{\contentsline {figure}{\numberline {1}{\ignorespaces CERNのかっこいい画像!}}{4}{figure.1}\protected@file@percent }
\newlabel{fig:cernicon}{{1}{4}{CERNのかっこいい画像!}{figure.1}{}}
\@writefile{toc}{\contentsline {subsection}{\numberline {1.1}hugeeeee}{4}{subsection.1.1}\protected@file@percent }
\@writefile{toc}{\contentsline {section}{\numberline {2}方法}{5}{section.2}\protected@file@percent }
\@writefile{toc}{\contentsline {section}{\numberline {3}結果}{6}{section.3}\protected@file@percent }
\@writefile{toc}{\contentsline {section}{\numberline {4}結論}{7}{section.4}\protected@file@percent }
\bibdata{ref}
\bibcite{Osada:2019oor}{1}
\bibstyle{junsrt}
