\contentsline {section}{\numberline {1}序論}{4}{section.1}%
\contentsline {subsection}{\numberline {1.1}hugeeeee}{4}{subsection.1.1}%
\contentsline {section}{\numberline {2}方法}{5}{section.2}%
\contentsline {section}{\numberline {3}結果}{6}{section.3}%
\contentsline {section}{\numberline {4}結論}{7}{section.4}%
